{
	"intro": {
		"start": "const Developer = ( name, passion ) =>",
		"end": "Hello, my name is",
		"speed": 60,
		"deletionSpeed": 80,
		"wrapper": "h2",
		"startDelay": 1000,
		"deleteDelay": 3000,
		"restartDelay": 12000
	},

	"header": {
		"name": "Anees Ibrahim.",
		"usp": "I design and build meaningful experiences."
	},

	"paragraph": "I am a digital polymath — a constantly evolving digital creator driven by a passion for lifelong learning and the desire to leave a lasting impact.",

	"buttons": {
		"primary": {
			"title": "Contact Me",
			"url": "",
			"leaveSite": false
		},
		"secondary": {
			"title": "LinkedIn",
			"url": "",
			"leaveSite": "true"
		}
	}
}
